====================================
BinarFud
====================================

Terima kasih sudah memesan
di BinarFud

Dibawah ini adalah pesanan anda

1.	Nasi Goreng	|	1	|	15000
2.	Nasi Bebek	|	1	|	20000
3.	Nasi Bakar	|	1	|	25000
4.	Nasi Telor	|	1	|	10000
-----------------------------------+
Total				4		70000

Pembayaran : BinarCash

====================================
Simpan struk ini sebagai
bukti pembayaran
====================================